…
  - We will rename in R as ‘grinches\_full’ alluding to the fully
    unaltered file. Here we say header = TRUE where the first row are
    names of the proceeding columns.
  - ‘na.strings’ allows us to go through the .csv file and remove any
    empty cells - ("“), cells with one space in them - (” “), or cells
    with”ND" (for NO DATA").

<!-- end list -->

``` r
grinches_tibble <- as_tibble(grinches_full) #make grinches_full data set as a tibble
grinches_tibble 
```

    ## # A tibble: 41 x 29
    ##    ï...SampleID BarcodeSequence LinkerPrimer Sample.Name. Station Tube.number
    ##    <chr>        <lgl>           <lgl>        <chr>        <chr>   <chr>      
    ##  1 Lisa201-B1   NA              NA           G48          G9A     48         
    ##  2 Lisa202-B2   NA              NA           G50          G9A     50         
    ##  3 Lisa203-B3   NA              NA           G52          G9A     52         
    ##  4 Lisa204-B4   NA              NA           G54          G9A     54         
    ##  5 Lisa205-B5   NA              NA           G56          G9A     56         
    ##  6 Lisa206-B6   NA              NA           G58          G9A     58         
    ##  7 Lisa207-B7   NA              NA           G60          G9A     60         
    ##  8 Lisa208-B8   NA              NA           G88          G9B     88         
    ##  9 Lisa209-B9   NA              NA           G114         G10A    114        
    ## 10 Lisa210-B10  NA              NA           G116         G10A    116        
    ## # ... with 31 more rows, and 23 more variables: Depth..m. <chr>,
    ## #   Preserved.For <chr>, Julian.Date <chr>, LATITUDE..S. <chr>,
    ## #   LONGITUDE <chr>, DIRECT.COUNTS <chr>, Chl.a <chr>, DPM..leucine. <chr>,
    ## #   Bacterial.Prod. <chr>, Description <chr>, Depth <chr>,
    ## #   Mean..NO3.NO2. <chr>, Mean..NO2. <chr>, Mean..NO3. <chr>, Mean..DSI. <chr>,
    ## #   Mean..PO4.ÂµM. <chr>, Mean..NH4.ÂµM. <chr>, CTD.DEPTH <chr>, sigma.t <chr>,
    ## #   Salinity.psu <chr>, TÂ.C <chr>, X <lgl>, X.1 <chr>
…
  - We have a desired tibble with removed columns we don’t need, as well
    as correctly named columns for a data frame.

<!-- end list -->

``` r
grinches_tibble2 #We see the grinches_tibble_2 outcome, but row 41 has no useful information other than "control" for every column. So we will get rid of row 41.
```

    ## # A tibble: 41 x 18
    ##    station depth_m x     y     dir_cts chl_a leucine bac_prod mean_no3_no2
    ##    <chr>   <chr>   <chr> <chr> <chr>   <chr> <chr>   <chr>    <chr>       
    ##  1 G9A     5       7630~ 1790~ 1.16E+~ 5.21  4031    0.283    19.24       
    ##  2 G9A     20      7630~ 1790~ 1.20E+~ 4.93  4356    0.257    21.22       
    ##  3 G9A     40      7630~ 1790~ 1.69E+~ 3.62  4332    0.183    21.75       
    ##  4 G9A     60      7630~ 1790~ 1.73E+~ 2.57  3318    0.227    26          
    ##  5 G9A     80      7630~ 1790~ 2.32E+~ 1.71  2025    0.205    26.86       
    ##  6 G9A     250     7630~ 1790~ 1.87E+~ <NA>  <NA>    <NA>     <NA>        
    ##  7 G9A     0       7630~ 1790~ 1.13E+~ 5.14  3313    0.285    19.02       
    ##  8 G9B     5       7630~ 1790~ 1.15E+~ 4.51  <NA>    <NA>     <NA>        
    ##  9 G10A    0       7659~ 1795~ 1.56E+~ 4.96  538     0.506    18.42       
    ## 10 G10A    5       7659~ 1795~ 1.41E+~ 4.79  491     0.5      18.44       
    ## # ... with 31 more rows, and 9 more variables: mean_no2 <chr>, mean_no3 <chr>,
    ## #   mean_dsi <chr>, mean_po4 <chr>, mean_nh4 <chr>, ctd_depth <chr>,
    ## #   sig_t <chr>, sal_psu <chr>, degrees_c <chr>

``` r
grinches_tibble2 <- grinches_tibble2[-c(41),]
grinches_tibble2 #here it prints 40 rows instead of 41
```

    ## # A tibble: 40 x 18
    ##    station depth_m x     y     dir_cts chl_a leucine bac_prod mean_no3_no2
    ##    <chr>   <chr>   <chr> <chr> <chr>   <chr> <chr>   <chr>    <chr>       
    ##  1 G9A     5       7630~ 1790~ 1.16E+~ 5.21  4031    0.283    19.24       
    ##  2 G9A     20      7630~ 1790~ 1.20E+~ 4.93  4356    0.257    21.22       
    ##  3 G9A     40      7630~ 1790~ 1.69E+~ 3.62  4332    0.183    21.75       
    ##  4 G9A     60      7630~ 1790~ 1.73E+~ 2.57  3318    0.227    26          
    ##  5 G9A     80      7630~ 1790~ 2.32E+~ 1.71  2025    0.205    26.86       
    ##  6 G9A     250     7630~ 1790~ 1.87E+~ <NA>  <NA>    <NA>     <NA>        
    ##  7 G9A     0       7630~ 1790~ 1.13E+~ 5.14  3313    0.285    19.02       
    ##  8 G9B     5       7630~ 1790~ 1.15E+~ 4.51  <NA>    <NA>     <NA>        
    ##  9 G10A    0       7659~ 1795~ 1.56E+~ 4.96  538     0.506    18.42       
    ## 10 G10A    5       7659~ 1795~ 1.41E+~ 4.79  491     0.5      18.44       
    ## # ... with 30 more rows, and 9 more variables: mean_no2 <chr>, mean_no3 <chr>,
    ## #   mean_dsi <chr>, mean_po4 <chr>, mean_nh4 <chr>, ctd_depth <chr>,
    ## #   sig_t <chr>, sal_psu <chr>, degrees_c <chr>
…
# Since we need numeric vectors instead of character vectors, we'll change the station name to a corresponding number, Station G9A will be station 1, Station G9B will be 2, and so on. 
grinches_tibble2$station[grinches_tibble2$station == "G9A"] <- 1
grinches_tibble2$station[grinches_tibble2$station == "G9B"] <- 2
grinches_tibble2$station[grinches_tibble2$station == "G10A"] <- 3
grinches_tibble2$station[grinches_tibble2$station == "G11D"] <- 4
grinches_tibble2$station[grinches_tibble2$station == "G11E"] <- 5
grinches_tibble2$station[grinches_tibble2$station == "G12A"] <- 6
grinches_tibble2$station[grinches_tibble2$station == "G11A"] <- 7
grinches_tibble2$station[grinches_tibble2$station == "G12D"] <- 8
grinches_tibble2$station[grinches_tibble2$station == "G13A"] <- 9
grinches_tibble2$station[grinches_tibble2$station == "G13B"] <- 10
grinches_tibble2
```

    ## # A tibble: 40 x 18
    ##    station depth_m x     y     dir_cts chl_a leucine bac_prod mean_no3_no2
    ##    <chr>     <dbl> <chr> <chr> <chr>   <chr> <chr>   <chr>    <chr>       
    ##  1 1             5 7630~ 1790~ 1.16E+~ 5.21  4031    0.283    19.24       
    ##  2 1            20 7630~ 1790~ 1.20E+~ 4.93  4356    0.257    21.22       
    ##  3 1            40 7630~ 1790~ 1.69E+~ 3.62  4332    0.183    21.75       
    ##  4 1            60 7630~ 1790~ 1.73E+~ 2.57  3318    0.227    26          
    ##  5 1            80 7630~ 1790~ 2.32E+~ 1.71  2025    0.205    26.86       
    ##  6 1           250 7630~ 1790~ 1.87E+~ <NA>  <NA>    <NA>     <NA>        
    ##  7 1             0 7630~ 1790~ 1.13E+~ 5.14  3313    0.285    19.02       
    ##  8 2             5 7630~ 1790~ 1.15E+~ 4.51  <NA>    <NA>     <NA>        
    ##  9 3             0 7659~ 1795~ 1.56E+~ 4.96  538     0.506    18.42       
    ## 10 3             5 7659~ 1795~ 1.41E+~ 4.79  491     0.5      18.44       
    ## # ... with 30 more rows, and 9 more variables: mean_no2 <chr>, mean_no3 <chr>,
    ## #   mean_dsi <chr>, mean_po4 <chr>, mean_nh4 <chr>, ctd_depth <chr>,
    ## #   sig_t <chr>, sal_psu <chr>, degrees_c <chr>
…
  - Now we want the depth to read negative for our scatterplots.

<!-- end list -->

``` r
grinches_tibble2$depth_m <- grinches_tibble2$depth_m * -1
grinches_tibble2 #all values now appear to be in the appropriate format.
```

    ## # A tibble: 40 x 18
    ##    station depth_m     x      y dir_cts chl_a leucine bac_prod mean_no3_no2
    ##      <dbl>   <dbl> <dbl>  <dbl>   <dbl> <dbl>   <dbl>    <dbl>        <dbl>
    ##  1       1      -5 7630. 17900.  116000  5.21    4031    0.283         19.2
    ##  2       1     -20 7630. 17900.  120000  4.93    4356    0.257         21.2
    ##  3       1     -40 7630. 17900.  169000  3.62    4332    0.183         21.8
    ##  4       1     -60 7630. 17900.  173000  2.57    3318    0.227         26  
    ##  5       1     -80 7630. 17900.  232000  1.71    2025    0.205         26.9
    ##  6       1    -250 7630. 17900.  187000 NA         NA   NA             NA  
    ##  7       1       0 7630. 17900.  113000  5.14    3313    0.285         19.0
    ##  8       2      -5 7630. 17900.  115000  4.51      NA   NA             NA  
    ##  9       3       0 7660. 17960.  156000  4.96     538    0.506         18.4
    ## 10       3      -5 7660. 17960.  141000  4.79     491    0.5           18.4
    ## # ... with 30 more rows, and 9 more variables: mean_no2 <dbl>, mean_no3 <dbl>,
    ## #   mean_dsi <dbl>, mean_po4 <dbl>, mean_nh4 <dbl>, ctd_depth <dbl>,
    ## #   sig_t <dbl>, sal_psu <dbl>, degrees_c <dbl>
…
